br/com/dbc/petshop/entity/Animal.class
br/com/dbc/petshop/entity/Cliente.class
br/com/dbc/petshop/entity/PersistenceUtils.class
br/com/dbc/petshop/entity/AnimalDAO.class
br/com/dbc/petshop/entity/SexoType.class
br/com/dbc/petshop/entity/ClienteDAO.class
br/com/dbc/petshop/Main.class
br/com/dbc/petshop/entity/HibernateUtil.class
