/home/douglas/Documents/ProjetosDBC/douglas-moura/modulo3/AULA02/Petshop/src/main/java/br/com/dbc/petshop/entity/PersistenceUtils.java
/home/douglas/Documents/ProjetosDBC/douglas-moura/modulo3/AULA02/Petshop/src/main/java/br/com/dbc/petshop/entity/ClienteDAO.java
/home/douglas/Documents/ProjetosDBC/douglas-moura/modulo3/AULA02/Petshop/src/main/java/br/com/dbc/petshop/Main.java
/home/douglas/Documents/ProjetosDBC/douglas-moura/modulo3/AULA02/Petshop/src/main/java/br/com/dbc/petshop/entity/Animal.java
/home/douglas/Documents/ProjetosDBC/douglas-moura/modulo3/AULA02/Petshop/src/main/java/br/com/dbc/petshop/entity/HibernateUtil.java
/home/douglas/Documents/ProjetosDBC/douglas-moura/modulo3/AULA02/Petshop/src/main/java/br/com/dbc/petshop/entity/AnimalDAO.java
/home/douglas/Documents/ProjetosDBC/douglas-moura/modulo3/AULA02/Petshop/src/main/java/br/com/dbc/petshop/entity/Cliente.java
/home/douglas/Documents/ProjetosDBC/douglas-moura/modulo3/AULA02/Petshop/src/main/java/br/com/dbc/petshop/entity/SexoType.java
