C:\Users\douglas.silva\Documents\ProjetosDBC\douglas-moura\modulo3\Exercicios\mavenproject3\src\main\java\br\com\dbc\entity\Mundo.java
C:\Users\douglas.silva\Documents\ProjetosDBC\douglas-moura\modulo3\Exercicios\mavenproject3\src\main\java\br\com\dbc\Main.java
C:\Users\douglas.silva\Documents\ProjetosDBC\douglas-moura\modulo3\Exercicios\mavenproject3\src\main\java\br\com\dbc\entity\Estado.java
C:\Users\douglas.silva\Documents\ProjetosDBC\douglas-moura\modulo3\Exercicios\mavenproject3\src\main\java\br\com\dbc\PersistenceUtils.java
C:\Users\douglas.silva\Documents\ProjetosDBC\douglas-moura\modulo3\Exercicios\mavenproject3\src\main\java\br\com\dbc\PaisService.java
C:\Users\douglas.silva\Documents\ProjetosDBC\douglas-moura\modulo3\Exercicios\mavenproject3\src\main\java\br\com\dbc\entity\Cidade.java
C:\Users\douglas.silva\Documents\ProjetosDBC\douglas-moura\modulo3\Exercicios\mavenproject3\src\main\java\br\com\dbc\entity\Pais.java
